%YAML 1.1
%TAG !u! tag:unity3d.com,2011:
--- !u!114 &11400000
MonoBehaviour:
  m_ObjectHideFlags: 0
  m_CorrespondingSourceObject: {fileID: 0}
  m_PrefabInstance: {fileID: 0}
  m_PrefabAsset: {fileID: 0}
  m_GameObject: {fileID: 0}
  m_Enabled: 1
  m_EditorHideFlags: 0
  m_Script: {fileID: 11500000, guid: 95e66c6366d904e98bc83428217d4fd7, type: 3}
  m_Name: CapsuleMovement
  m_EditorClassIdentifier: 
  _data:
    _json: '{"graph":{"variables":{"Kind":"Flow","collection":{"$content":[],"$version":"A"},"$version":"A"},"controlInputDefinitions":[],"controlOutputDefinitions":[],"valueInputDefinitions":[],"valueOutputDefinitions":[],"title":null,"summary":null,"pan":{"x":-173.3698,"y":45.0},"zoom":1.0,"elements":[{"coroutine":false,"defaultValues":{},"position":{"x":-359.0,"y":-130.0},"guid":"2f0cd435-cb25-4983-aeec-f710c01c4357","$version":"A","$type":"Unity.VisualScripting.Update","$id":"9"},{"chainable":false,"parameterNames":["vector","maxLength"],"member":{"name":"ClampMagnitude","parameterTypes":["UnityEngine.Vector3","System.Single"],"targetType":"UnityEngine.Vector3","targetTypeName":"UnityEngine.Vector3","$version":"A"},"defaultValues":{"%vector":{"x":0.0,"y":0.0,"z":0.0,"$type":"UnityEngine.Vector3"},"%maxLength":{"$content":1.0,"$type":"System.Single"}},"position":{"x":8.0,"y":-129.0},"guid":"d564c05c-98a8-4428-830c-e8df424d97f5","$version":"A","$type":"Unity.VisualScripting.InvokeMember","$id":"11"},{"chainable":false,"parameterNames":["translation"],"member":{"name":"Translate","parameterTypes":["UnityEngine.Vector3"],"targetType":"UnityEngine.Transform","targetTypeName":"UnityEngine.Transform","$version":"A"},"defaultValues":{"target":null,"%translation":{"x":0.0,"y":0.0,"z":0.0,"$type":"UnityEngine.Vector3"}},"position":{"x":351.0,"y":-130.0},"guid":"9ca7d029-6aa9-47f1-a67c-8ea2b6e9459f","$version":"A","$type":"Unity.VisualScripting.InvokeMember","$id":"15"},{"defaultValues":{},"position":{"x":211.0,"y":11.0},"guid":"eb23f696-09d4-44ee-86d9-70e4da387ed4","$version":"A","$type":"Unity.VisualScripting.GenericMultiply","$id":"19"},{"defaultValues":{},"position":{"x":57.0,"y":142.0},"guid":"2b004fb2-a77c-46b2-b250-e4485193d1a0","$version":"A","$type":"Unity.VisualScripting.GenericMultiply","$id":"21"},{"specifyFallback":false,"kind":"Object","defaultValues":{"name":{"$content":"Move
      Speeed","$type":"System.String"},"object":null},"position":{"x":-119.0,"y":6.0},"guid":"524bb8ea-2e26-4aa0-a51e-280d0fac026c","$version":"A","$type":"Unity.VisualScripting.GetVariable","$id":"23"},{"specifyFallback":false,"kind":"Object","defaultValues":{"name":{"$content":"MoveAxis","$type":"System.String"},"object":null},"position":{"x":-436.0,"y":6.0},"guid":"5cfc44eb-c2e9-4002-b318-e31dd93e9049","$version":"A","$type":"Unity.VisualScripting.GetVariable","$id":"25"},{"member":{"name":"deltaTime","parameterTypes":null,"targetType":"UnityEngine.Time","targetTypeName":"UnityEngine.Time","$version":"A"},"defaultValues":{},"position":{"x":-396.0,"y":161.0},"guid":"402a45d1-aad7-4218-b817-1286f9f0e545","$version":"A","$type":"Unity.VisualScripting.GetMember","$id":"27"},{"sourceUnit":{"$ref":"9"},"sourceKey":"trigger","destinationUnit":{"$ref":"11"},"destinationKey":"enter","guid":"8d386b5f-06c7-4319-ade0-ada132c65524","$type":"Unity.VisualScripting.ControlConnection"},{"sourceUnit":{"$ref":"11"},"sourceKey":"exit","destinationUnit":{"$ref":"15"},"destinationKey":"enter","guid":"f38f4854-9871-4293-bcce-5b5bee5c88c8","$type":"Unity.VisualScripting.ControlConnection"},{"sourceUnit":{"$ref":"19"},"sourceKey":"product","destinationUnit":{"$ref":"15"},"destinationKey":"%translation","guid":"49af1111-137c-477c-887f-cf5655ba65a1","$type":"Unity.VisualScripting.ValueConnection"},{"sourceUnit":{"$ref":"11"},"sourceKey":"result","destinationUnit":{"$ref":"19"},"destinationKey":"a","guid":"e9fe1c7c-efa9-485f-906c-bbb39cde2859","$type":"Unity.VisualScripting.ValueConnection"},{"sourceUnit":{"$ref":"21"},"sourceKey":"product","destinationUnit":{"$ref":"19"},"destinationKey":"b","guid":"b14363a2-dd5d-4316-ab1f-d1410c840c83","$type":"Unity.VisualScripting.ValueConnection"},{"sourceUnit":{"$ref":"25"},"sourceKey":"value","destinationUnit":{"$ref":"11"},"destinationKey":"%vector","guid":"25e2edb1-8132-4ad7-bd8a-d7445beea5f8","$type":"Unity.VisualScripting.ValueConnection"},{"sourceUnit":{"$ref":"23"},"sourceKey":"value","destinationUnit":{"$ref":"21"},"destinationKey":"a","guid":"8ad60666-c522-457a-ba05-8ade3c78f00e","$type":"Unity.VisualScripting.ValueConnection"},{"sourceUnit":{"$ref":"27"},"sourceKey":"value","destinationUnit":{"$ref":"21"},"destinationKey":"b","guid":"84e31b84-3f68-492e-95ae-986028d22e54","$type":"Unity.VisualScripting.ValueConnection"}],"$version":"A"}}'
    _objectReferences: []
